// Jest Snapshot v1, https://goo.gl/fbAQLP

exports[`App When App is mounted has the expected html structure 1`] = `
<v-app-stub
  id="app"
>
  <v-container-stub
    fluid=""
    pa-0=""
    tag="div"
  >
    <!---->
     
    <welcomescreen-stub />
     
    <!---->
     
    <!---->
     
    <!---->
     
    <!---->
  </v-container-stub>
</v-app-stub>
`;
